{"@t":"2024-07-19T03:16:17.9642626Z","@mt":"Overriding address(es) '{addresses}'. Binding to endpoints defined via IConfiguration and/or UseKestrel() instead.","@l":"Warning","addresses":"http://0.0.0.0:8000","SourceContext":"Microsoft.AspNetCore.Server.Kestrel"}
{"@t":"2024-07-19T03:21:27.3232552Z","@mt":"Overriding address(es) '{addresses}'. Binding to endpoints defined via IConfiguration and/or UseKestrel() instead.","@l":"Warning","addresses":"http://0.0.0.0:8000","SourceContext":"Microsoft.AspNetCore.Server.Kestrel"}
{"@t":"2024-07-19T03:42:09.4685956Z","@mt":"Failed to determine the https port for redirect.","@l":"Warning","EventId":{"Id":3,"Name":"FailedToDeterminePort"},"SourceContext":"Microsoft.AspNetCore.HttpsPolicy.HttpsRedirectionMiddleware","RequestId":"0HN57K7J6MQMF:00000004","RequestPath":"/api/item/get-all-item","ConnectionId":"0HN57K7J6MQMF"}
{"@t":"2024-07-19T03:42:12.3220446Z","@mt":"Entity '{principalEntityType}' has a global query filter defined and is the required end of a relationship with the entity '{declaringEntityType}'. This may lead to unexpected results when the required entity is filtered out. Either configure the navigation as optional, or define matching query filters for both entities in the navigation. See https://go.microsoft.com/fwlink/?linkid=2131316 for more information.","@l":"Warning","principalEntityType":"Item","declaringEntityType":"NonProject","EventId":{"Id":10622,"Name":"Microsoft.EntityFrameworkCore.Model.Validation.PossibleIncorrectRequiredNavigationWithQueryFilterInteractionWarning"},"SourceContext":"Microsoft.EntityFrameworkCore.Model.Validation","ActionId":"1f3197c0-7f60-4a61-b9d3-9769d8372bfb","ActionName":"SkeletonApi.Presentation.Controllers.ItemController.GetAll (SkeletonApi.Presentation)","RequestId":"0HN57K7J6MQMF:00000004","RequestPath":"/api/item/get-all-item","ConnectionId":"0HN57K7J6MQMF"}
{"@t":"2024-07-19T03:42:12.3244475Z","@mt":"Entity '{principalEntityType}' has a global query filter defined and is the required end of a relationship with the entity '{declaringEntityType}'. This may lead to unexpected results when the required entity is filtered out. Either configure the navigation as optional, or define matching query filters for both entities in the navigation. See https://go.microsoft.com/fwlink/?linkid=2131316 for more information.","@l":"Warning","principalEntityType":"MasterProject","declaringEntityType":"Project","EventId":{"Id":10622,"Name":"Microsoft.EntityFrameworkCore.Model.Validation.PossibleIncorrectRequiredNavigationWithQueryFilterInteractionWarning"},"SourceContext":"Microsoft.EntityFrameworkCore.Model.Validation","ActionId":"1f3197c0-7f60-4a61-b9d3-9769d8372bfb","ActionName":"SkeletonApi.Presentation.Controllers.ItemController.GetAll (SkeletonApi.Presentation)","RequestId":"0HN57K7J6MQMF:00000004","RequestPath":"/api/item/get-all-item","ConnectionId":"0HN57K7J6MQMF"}
{"@t":"2024-07-19T03:42:12.3260068Z","@mt":"Entity '{principalEntityType}' has a global query filter defined and is the required end of a relationship with the entity '{declaringEntityType}'. This may lead to unexpected results when the required entity is filtered out. Either configure the navigation as optional, or define matching query filters for both entities in the navigation. See https://go.microsoft.com/fwlink/?linkid=2131316 for more information.","@l":"Warning","principalEntityType":"Item","declaringEntityType":"RequestItemWarehouse","EventId":{"Id":10622,"Name":"Microsoft.EntityFrameworkCore.Model.Validation.PossibleIncorrectRequiredNavigationWithQueryFilterInteractionWarning"},"SourceContext":"Microsoft.EntityFrameworkCore.Model.Validation","ActionId":"1f3197c0-7f60-4a61-b9d3-9769d8372bfb","ActionName":"SkeletonApi.Presentation.Controllers.ItemController.GetAll (SkeletonApi.Presentation)","RequestId":"0HN57K7J6MQMF:00000004","RequestPath":"/api/item/get-all-item","ConnectionId":"0HN57K7J6MQMF"}
{"@t":"2024-07-19T03:42:12.3277473Z","@mt":"Entity '{principalEntityType}' has a global query filter defined and is the required end of a relationship with the entity '{declaringEntityType}'. This may lead to unexpected results when the required entity is filtered out. Either configure the navigation as optional, or define matching query filters for both entities in the navigation. See https://go.microsoft.com/fwlink/?linkid=2131316 for more information.","@l":"Warning","principalEntityType":"Item","declaringEntityType":"Warehouse","EventId":{"Id":10622,"Name":"Microsoft.EntityFrameworkCore.Model.Validation.PossibleIncorrectRequiredNavigationWithQueryFilterInteractionWarning"},"SourceContext":"Microsoft.EntityFrameworkCore.Model.Validation","ActionId":"1f3197c0-7f60-4a61-b9d3-9769d8372bfb","ActionName":"SkeletonApi.Presentation.Controllers.ItemController.GetAll (SkeletonApi.Presentation)","RequestId":"0HN57K7J6MQMF:00000004","RequestPath":"/api/item/get-all-item","ConnectionId":"0HN57K7J6MQMF"}
{"@t":"2024-07-19T04:06:05.2699639Z","@mt":"Overriding address(es) '{addresses}'. Binding to endpoints defined via IConfiguration and/or UseKestrel() instead.","@l":"Warning","addresses":"http://0.0.0.0:8000","SourceContext":"Microsoft.AspNetCore.Server.Kestrel"}
{"@t":"2024-07-19T04:06:07.7931968Z","@mt":"Failed to determine the https port for redirect.","@l":"Warning","EventId":{"Id":3,"Name":"FailedToDeterminePort"},"SourceContext":"Microsoft.AspNetCore.HttpsPolicy.HttpsRedirectionMiddleware","RequestId":"0HN57L0EU4J27:00000002","RequestPath":"/api/item/get-all-item","ConnectionId":"0HN57L0EU4J27"}
{"@t":"2024-07-19T04:06:08.9275102Z","@mt":"Entity '{principalEntityType}' has a global query filter defined and is the required end of a relationship with the entity '{declaringEntityType}'. This may lead to unexpected results when the required entity is filtered out. Either configure the navigation as optional, or define matching query filters for both entities in the navigation. See https://go.microsoft.com/fwlink/?linkid=2131316 for more information.","@l":"Warning","principalEntityType":"Item","declaringEntityType":"NonProject","EventId":{"Id":10622,"Name":"Microsoft.EntityFrameworkCore.Model.Validation.PossibleIncorrectRequiredNavigationWithQueryFilterInteractionWarning"},"SourceContext":"Microsoft.EntityFrameworkCore.Model.Validation","ActionId":"263b4152-a8a8-4af4-92af-711af1973af3","ActionName":"SkeletonApi.Presentation.Controllers.ProjectController.GetAll (SkeletonApi.Presentation)","RequestId":"0HN57L0EU4J27:00000003","RequestPath":"/api/project/get-all-project","ConnectionId":"0HN57L0EU4J27"}
{"@t":"2024-07-19T04:06:08.9455987Z","@mt":"Entity '{principalEntityType}' has a global query filter defined and is the required end of a relationship with the entity '{declaringEntityType}'. This may lead to unexpected results when the required entity is filtered out. Either configure the navigation as optional, or define matching query filters for both entities in the navigation. See https://go.microsoft.com/fwlink/?linkid=2131316 for more information.","@l":"Warning","principalEntityType":"MasterProject","declaringEntityType":"Project","EventId":{"Id":10622,"Name":"Microsoft.EntityFrameworkCore.Model.Validation.PossibleIncorrectRequiredNavigationWithQueryFilterInteractionWarning"},"SourceContext":"Microsoft.EntityFrameworkCore.Model.Validation","ActionId":"263b4152-a8a8-4af4-92af-711af1973af3","ActionName":"SkeletonApi.Presentation.Controllers.ProjectController.GetAll (SkeletonApi.Presentation)","RequestId":"0HN57L0EU4J27:00000003","RequestPath":"/api/project/get-all-project","ConnectionId":"0HN57L0EU4J27"}
{"@t":"2024-07-19T04:06:08.9477630Z","@mt":"Entity '{principalEntityType}' has a global query filter defined and is the required end of a relationship with the entity '{declaringEntityType}'. This may lead to unexpected results when the required entity is filtered out. Either configure the navigation as optional, or define matching query filters for both entities in the navigation. See https://go.microsoft.com/fwlink/?linkid=2131316 for more information.","@l":"Warning","principalEntityType":"Item","declaringEntityType":"RequestItemWarehouse","EventId":{"Id":10622,"Name":"Microsoft.EntityFrameworkCore.Model.Validation.PossibleIncorrectRequiredNavigationWithQueryFilterInteractionWarning"},"SourceContext":"Microsoft.EntityFrameworkCore.Model.Validation","ActionId":"263b4152-a8a8-4af4-92af-711af1973af3","ActionName":"SkeletonApi.Presentation.Controllers.ProjectController.GetAll (SkeletonApi.Presentation)","RequestId":"0HN57L0EU4J27:00000003","RequestPath":"/api/project/get-all-project","ConnectionId":"0HN57L0EU4J27"}
{"@t":"2024-07-19T04:06:08.9485744Z","@mt":"Entity '{principalEntityType}' has a global query filter defined and is the required end of a relationship with the entity '{declaringEntityType}'. This may lead to unexpected results when the required entity is filtered out. Either configure the navigation as optional, or define matching query filters for both entities in the navigation. See https://go.microsoft.com/fwlink/?linkid=2131316 for more information.","@l":"Warning","principalEntityType":"Item","declaringEntityType":"Warehouse","EventId":{"Id":10622,"Name":"Microsoft.EntityFrameworkCore.Model.Validation.PossibleIncorrectRequiredNavigationWithQueryFilterInteractionWarning"},"SourceContext":"Microsoft.EntityFrameworkCore.Model.Validation","ActionId":"263b4152-a8a8-4af4-92af-711af1973af3","ActionName":"SkeletonApi.Presentation.Controllers.ProjectController.GetAll (SkeletonApi.Presentation)","RequestId":"0HN57L0EU4J27:00000003","RequestPath":"/api/project/get-all-project","ConnectionId":"0HN57L0EU4J27"}
{"@t":"2024-07-19T04:06:51.0630186Z","@mt":"The query uses a row limiting operator ('Skip'/'Take') without an 'OrderBy' operator. This may lead to unpredictable results. If the 'Distinct' operator is used after 'OrderBy', then make sure to use the 'OrderBy' operator after 'Distinct' as the ordering would otherwise get erased.","@l":"Warning","EventId":{"Id":10102,"Name":"Microsoft.EntityFrameworkCore.Query.RowLimitingOperationWithoutOrderByWarning"},"SourceContext":"Microsoft.EntityFrameworkCore.Query","ActionId":"4a88cb66-2354-4e9a-a46a-3b640ca5fa9c","ActionName":"SkeletonApi.Presentation.Controllers.NonProjectController.GetWithPagination (SkeletonApi.Presentation)","RequestId":"0HN57L0EU4J2A:00000004","RequestPath":"/api/non-project/paged","ConnectionId":"0HN57L0EU4J2A"}
{"@t":"2024-07-19T04:06:51.0639024Z","@mt":"The query uses a row limiting operator ('Skip'/'Take') without an 'OrderBy' operator. This may lead to unpredictable results. If the 'Distinct' operator is used after 'OrderBy', then make sure to use the 'OrderBy' operator after 'Distinct' as the ordering would otherwise get erased.","@l":"Warning","EventId":{"Id":10102,"Name":"Microsoft.EntityFrameworkCore.Query.RowLimitingOperationWithoutOrderByWarning"},"SourceContext":"Microsoft.EntityFrameworkCore.Query","ActionId":"4a88cb66-2354-4e9a-a46a-3b640ca5fa9c","ActionName":"SkeletonApi.Presentation.Controllers.NonProjectController.GetWithPagination (SkeletonApi.Presentation)","RequestId":"0HN57L0EU4J2A:00000004","RequestPath":"/api/non-project/paged","ConnectionId":"0HN57L0EU4J2A"}
{"@t":"2024-07-19T04:08:49.5889885Z","@mt":"Overriding address(es) '{addresses}'. Binding to endpoints defined via IConfiguration and/or UseKestrel() instead.","@l":"Warning","addresses":"http://0.0.0.0:8000","SourceContext":"Microsoft.AspNetCore.Server.Kestrel"}
{"@t":"2024-07-19T04:09:17.6798132Z","@mt":"Failed to determine the https port for redirect.","@l":"Warning","EventId":{"Id":3,"Name":"FailedToDeterminePort"},"SourceContext":"Microsoft.AspNetCore.HttpsPolicy.HttpsRedirectionMiddleware","RequestId":"0HN57L27GVLVK:00000002","RequestPath":"/api/item/get-all-item","ConnectionId":"0HN57L27GVLVK"}
{"@t":"2024-07-19T04:09:18.7073948Z","@mt":"Entity '{principalEntityType}' has a global query filter defined and is the required end of a relationship with the entity '{declaringEntityType}'. This may lead to unexpected results when the required entity is filtered out. Either configure the navigation as optional, or define matching query filters for both entities in the navigation. See https://go.microsoft.com/fwlink/?linkid=2131316 for more information.","@l":"Warning","principalEntityType":"Item","declaringEntityType":"NonProject","EventId":{"Id":10622,"Name":"Microsoft.EntityFrameworkCore.Model.Validation.PossibleIncorrectRequiredNavigationWithQueryFilterInteractionWarning"},"SourceContext":"Microsoft.EntityFrameworkCore.Model.Validation","ActionId":"699706ac-5419-4e20-b705-973767f7663c","ActionName":"SkeletonApi.Presentation.Controllers.ProjectController.GetAll (SkeletonApi.Presentation)","RequestId":"0HN57L27GVLVJ:00000003","RequestPath":"/api/project/get-all-project","ConnectionId":"0HN57L27GVLVJ"}
{"@t":"2024-07-19T04:09:18.7146091Z","@mt":"Entity '{principalEntityType}' has a global query filter defined and is the required end of a relationship with the entity '{declaringEntityType}'. This may lead to unexpected results when the required entity is filtered out. Either configure the navigation as optional, or define matching query filters for both entities in the navigation. See https://go.microsoft.com/fwlink/?linkid=2131316 for more information.","@l":"Warning","principalEntityType":"MasterProject","declaringEntityType":"Project","EventId":{"Id":10622,"Name":"Microsoft.EntityFrameworkCore.Model.Validation.PossibleIncorrectRequiredNavigationWithQueryFilterInteractionWarning"},"SourceContext":"Microsoft.EntityFrameworkCore.Model.Validation","ActionId":"699706ac-5419-4e20-b705-973767f7663c","ActionName":"SkeletonApi.Presentation.Controllers.ProjectController.GetAll (SkeletonApi.Presentation)","RequestId":"0HN57L27GVLVJ:00000003","RequestPath":"/api/project/get-all-project","ConnectionId":"0HN57L27GVLVJ"}
{"@t":"2024-07-19T04:09:18.7167228Z","@mt":"Entity '{principalEntityType}' has a global query filter defined and is the required end of a relationship with the entity '{declaringEntityType}'. This may lead to unexpected results when the required entity is filtered out. Either configure the navigation as optional, or define matching query filters for both entities in the navigation. See https://go.microsoft.com/fwlink/?linkid=2131316 for more information.","@l":"Warning","principalEntityType":"Item","declaringEntityType":"RequestItemWarehouse","EventId":{"Id":10622,"Name":"Microsoft.EntityFrameworkCore.Model.Validation.PossibleIncorrectRequiredNavigationWithQueryFilterInteractionWarning"},"SourceContext":"Microsoft.EntityFrameworkCore.Model.Validation","ActionId":"699706ac-5419-4e20-b705-973767f7663c","ActionName":"SkeletonApi.Presentation.Controllers.ProjectController.GetAll (SkeletonApi.Presentation)","RequestId":"0HN57L27GVLVJ:00000003","RequestPath":"/api/project/get-all-project","ConnectionId":"0HN57L27GVLVJ"}
{"@t":"2024-07-19T04:09:18.7179817Z","@mt":"Entity '{principalEntityType}' has a global query filter defined and is the required end of a relationship with the entity '{declaringEntityType}'. This may lead to unexpected results when the required entity is filtered out. Either configure the navigation as optional, or define matching query filters for both entities in the navigation. See https://go.microsoft.com/fwlink/?linkid=2131316 for more information.","@l":"Warning","principalEntityType":"Item","declaringEntityType":"Warehouse","EventId":{"Id":10622,"Name":"Microsoft.EntityFrameworkCore.Model.Validation.PossibleIncorrectRequiredNavigationWithQueryFilterInteractionWarning"},"SourceContext":"Microsoft.EntityFrameworkCore.Model.Validation","ActionId":"699706ac-5419-4e20-b705-973767f7663c","ActionName":"SkeletonApi.Presentation.Controllers.ProjectController.GetAll (SkeletonApi.Presentation)","RequestId":"0HN57L27GVLVJ:00000003","RequestPath":"/api/project/get-all-project","ConnectionId":"0HN57L27GVLVJ"}
{"@t":"2024-07-19T04:11:30.2732447Z","@mt":"Overriding address(es) '{addresses}'. Binding to endpoints defined via IConfiguration and/or UseKestrel() instead.","@l":"Warning","addresses":"http://0.0.0.0:8000","SourceContext":"Microsoft.AspNetCore.Server.Kestrel"}
{"@t":"2024-07-19T04:12:05.5611772Z","@mt":"Failed to determine the https port for redirect.","@l":"Warning","EventId":{"Id":3,"Name":"FailedToDeterminePort"},"SourceContext":"Microsoft.AspNetCore.HttpsPolicy.HttpsRedirectionMiddleware","RequestId":"0HN57L3PHSOS8:00000002","RequestPath":"/api/project/get-all-project","ConnectionId":"0HN57L3PHSOS8"}
{"@t":"2024-07-19T04:12:06.9158355Z","@mt":"Entity '{principalEntityType}' has a global query filter defined and is the required end of a relationship with the entity '{declaringEntityType}'. This may lead to unexpected results when the required entity is filtered out. Either configure the navigation as optional, or define matching query filters for both entities in the navigation. See https://go.microsoft.com/fwlink/?linkid=2131316 for more information.","@l":"Warning","principalEntityType":"Item","declaringEntityType":"NonProject","EventId":{"Id":10622,"Name":"Microsoft.EntityFrameworkCore.Model.Validation.PossibleIncorrectRequiredNavigationWithQueryFilterInteractionWarning"},"SourceContext":"Microsoft.EntityFrameworkCore.Model.Validation","ActionId":"ae4049a4-ab60-43e8-9f1b-d0756074e601","ActionName":"SkeletonApi.Presentation.Controllers.ProjectController.GetAll (SkeletonApi.Presentation)","RequestId":"0HN57L3PHSOS8:00000002","RequestPath":"/api/project/get-all-project","ConnectionId":"0HN57L3PHSOS8"}
{"@t":"2024-07-19T04:12:06.9170727Z","@mt":"Entity '{principalEntityType}' has a global query filter defined and is the required end of a relationship with the entity '{declaringEntityType}'. This may lead to unexpected results when the required entity is filtered out. Either configure the navigation as optional, or define matching query filters for both entities in the navigation. See https://go.microsoft.com/fwlink/?linkid=2131316 for more information.","@l":"Warning","principalEntityType":"MasterProject","declaringEntityType":"Project","EventId":{"Id":10622,"Name":"Microsoft.EntityFrameworkCore.Model.Validation.PossibleIncorrectRequiredNavigationWithQueryFilterInteractionWarning"},"SourceContext":"Microsoft.EntityFrameworkCore.Model.Validation","ActionId":"ae4049a4-ab60-43e8-9f1b-d0756074e601","ActionName":"SkeletonApi.Presentation.Controllers.ProjectController.GetAll (SkeletonApi.Presentation)","RequestId":"0HN57L3PHSOS8:00000002","RequestPath":"/api/project/get-all-project","ConnectionId":"0HN57L3PHSOS8"}
{"@t":"2024-07-19T04:12:06.9176742Z","@mt":"Entity '{principalEntityType}' has a global query filter defined and is the required end of a relationship with the entity '{declaringEntityType}'. This may lead to unexpected results when the required entity is filtered out. Either configure the navigation as optional, or define matching query filters for both entities in the navigation. See https://go.microsoft.com/fwlink/?linkid=2131316 for more information.","@l":"Warning","principalEntityType":"Item","declaringEntityType":"RequestItemWarehouse","EventId":{"Id":10622,"Name":"Microsoft.EntityFrameworkCore.Model.Validation.PossibleIncorrectRequiredNavigationWithQueryFilterInteractionWarning"},"SourceContext":"Microsoft.EntityFrameworkCore.Model.Validation","ActionId":"ae4049a4-ab60-43e8-9f1b-d0756074e601","ActionName":"SkeletonApi.Presentation.Controllers.ProjectController.GetAll (SkeletonApi.Presentation)","RequestId":"0HN57L3PHSOS8:00000002","RequestPath":"/api/project/get-all-project","ConnectionId":"0HN57L3PHSOS8"}
{"@t":"2024-07-19T04:12:06.9183036Z","@mt":"Entity '{principalEntityType}' has a global query filter defined and is the required end of a relationship with the entity '{declaringEntityType}'. This may lead to unexpected results when the required entity is filtered out. Either configure the navigation as optional, or define matching query filters for both entities in the navigation. See https://go.microsoft.com/fwlink/?linkid=2131316 for more information.","@l":"Warning","principalEntityType":"Item","declaringEntityType":"Warehouse","EventId":{"Id":10622,"Name":"Microsoft.EntityFrameworkCore.Model.Validation.PossibleIncorrectRequiredNavigationWithQueryFilterInteractionWarning"},"SourceContext":"Microsoft.EntityFrameworkCore.Model.Validation","ActionId":"ae4049a4-ab60-43e8-9f1b-d0756074e601","ActionName":"SkeletonApi.Presentation.Controllers.ProjectController.GetAll (SkeletonApi.Presentation)","RequestId":"0HN57L3PHSOS8:00000002","RequestPath":"/api/project/get-all-project","ConnectionId":"0HN57L3PHSOS8"}
{"@t":"2024-07-19T04:24:22.8914065Z","@mt":"Overriding address(es) '{addresses}'. Binding to endpoints defined via IConfiguration and/or UseKestrel() instead.","@l":"Warning","addresses":"http://0.0.0.0:8000","SourceContext":"Microsoft.AspNetCore.Server.Kestrel"}
{"@t":"2024-07-19T04:27:00.5047837Z","@mt":"Failed to determine the https port for redirect.","@l":"Warning","EventId":{"Id":3,"Name":"FailedToDeterminePort"},"SourceContext":"Microsoft.AspNetCore.HttpsPolicy.HttpsRedirectionMiddleware","RequestId":"0HN57LC48F5JJ:00000002","RequestPath":"/api/non-project/paged","ConnectionId":"0HN57LC48F5JJ"}
{"@t":"2024-07-19T04:27:01.9103666Z","@mt":"Entity '{principalEntityType}' has a global query filter defined and is the required end of a relationship with the entity '{declaringEntityType}'. This may lead to unexpected results when the required entity is filtered out. Either configure the navigation as optional, or define matching query filters for both entities in the navigation. See https://go.microsoft.com/fwlink/?linkid=2131316 for more information.","@l":"Warning","principalEntityType":"Item","declaringEntityType":"NonProject","EventId":{"Id":10622,"Name":"Microsoft.EntityFrameworkCore.Model.Validation.PossibleIncorrectRequiredNavigationWithQueryFilterInteractionWarning"},"SourceContext":"Microsoft.EntityFrameworkCore.Model.Validation","ActionId":"c22724e8-2d42-436b-82aa-cd3101f125ae","ActionName":"SkeletonApi.Presentation.Controllers.NonProjectController.GetWithPagination (SkeletonApi.Presentation)","RequestId":"0HN57LC48F5JJ:00000002","RequestPath":"/api/non-project/paged","ConnectionId":"0HN57LC48F5JJ"}
{"@t":"2024-07-19T04:27:01.9114471Z","@mt":"Entity '{principalEntityType}' has a global query filter defined and is the required end of a relationship with the entity '{declaringEntityType}'. This may lead to unexpected results when the required entity is filtered out. Either configure the navigation as optional, or define matching query filters for both entities in the navigation. See https://go.microsoft.com/fwlink/?linkid=2131316 for more information.","@l":"Warning","principalEntityType":"MasterProject","declaringEntityType":"Project","EventId":{"Id":10622,"Name":"Microsoft.EntityFrameworkCore.Model.Validation.PossibleIncorrectRequiredNavigationWithQueryFilterInteractionWarning"},"SourceContext":"Microsoft.EntityFrameworkCore.Model.Validation","ActionId":"c22724e8-2d42-436b-82aa-cd3101f125ae","ActionName":"SkeletonApi.Presentation.Controllers.NonProjectController.GetWithPagination (SkeletonApi.Presentation)","RequestId":"0HN57LC48F5JJ:00000002","RequestPath":"/api/non-project/paged","ConnectionId":"0HN57LC48F5JJ"}
{"@t":"2024-07-19T04:27:01.9121312Z","@mt":"Entity '{principalEntityType}' has a global query filter defined and is the required end of a relationship with the entity '{declaringEntityType}'. This may lead to unexpected results when the required entity is filtered out. Either configure the navigation as optional, or define matching query filters for both entities in the navigation. See https://go.microsoft.com/fwlink/?linkid=2131316 for more information.","@l":"Warning","principalEntityType":"Item","declaringEntityType":"RequestItemWarehouse","EventId":{"Id":10622,"Name":"Microsoft.EntityFrameworkCore.Model.Validation.PossibleIncorrectRequiredNavigationWithQueryFilterInteractionWarning"},"SourceContext":"Microsoft.EntityFrameworkCore.Model.Validation","ActionId":"c22724e8-2d42-436b-82aa-cd3101f125ae","ActionName":"SkeletonApi.Presentation.Controllers.NonProjectController.GetWithPagination (SkeletonApi.Presentation)","RequestId":"0HN57LC48F5JJ:00000002","RequestPath":"/api/non-project/paged","ConnectionId":"0HN57LC48F5JJ"}
{"@t":"2024-07-19T04:27:01.9125847Z","@mt":"Entity '{principalEntityType}' has a global query filter defined and is the required end of a relationship with the entity '{declaringEntityType}'. This may lead to unexpected results when the required entity is filtered out. Either configure the navigation as optional, or define matching query filters for both entities in the navigation. See https://go.microsoft.com/fwlink/?linkid=2131316 for more information.","@l":"Warning","principalEntityType":"Item","declaringEntityType":"Warehouse","EventId":{"Id":10622,"Name":"Microsoft.EntityFrameworkCore.Model.Validation.PossibleIncorrectRequiredNavigationWithQueryFilterInteractionWarning"},"SourceContext":"Microsoft.EntityFrameworkCore.Model.Validation","ActionId":"c22724e8-2d42-436b-82aa-cd3101f125ae","ActionName":"SkeletonApi.Presentation.Controllers.NonProjectController.GetWithPagination (SkeletonApi.Presentation)","RequestId":"0HN57LC48F5JJ:00000002","RequestPath":"/api/non-project/paged","ConnectionId":"0HN57LC48F5JJ"}
{"@t":"2024-07-19T04:27:03.3518432Z","@mt":"The query uses a row limiting operator ('Skip'/'Take') without an 'OrderBy' operator. This may lead to unpredictable results. If the 'Distinct' operator is used after 'OrderBy', then make sure to use the 'OrderBy' operator after 'Distinct' as the ordering would otherwise get erased.","@l":"Warning","EventId":{"Id":10102,"Name":"Microsoft.EntityFrameworkCore.Query.RowLimitingOperationWithoutOrderByWarning"},"SourceContext":"Microsoft.EntityFrameworkCore.Query","ActionId":"c22724e8-2d42-436b-82aa-cd3101f125ae","ActionName":"SkeletonApi.Presentation.Controllers.NonProjectController.GetWithPagination (SkeletonApi.Presentation)","RequestId":"0HN57LC48F5JJ:00000002","RequestPath":"/api/non-project/paged","ConnectionId":"0HN57LC48F5JJ"}
{"@t":"2024-07-19T04:27:03.3537943Z","@mt":"The query uses a row limiting operator ('Skip'/'Take') without an 'OrderBy' operator. This may lead to unpredictable results. If the 'Distinct' operator is used after 'OrderBy', then make sure to use the 'OrderBy' operator after 'Distinct' as the ordering would otherwise get erased.","@l":"Warning","EventId":{"Id":10102,"Name":"Microsoft.EntityFrameworkCore.Query.RowLimitingOperationWithoutOrderByWarning"},"SourceContext":"Microsoft.EntityFrameworkCore.Query","ActionId":"c22724e8-2d42-436b-82aa-cd3101f125ae","ActionName":"SkeletonApi.Presentation.Controllers.NonProjectController.GetWithPagination (SkeletonApi.Presentation)","RequestId":"0HN57LC48F5JJ:00000002","RequestPath":"/api/non-project/paged","ConnectionId":"0HN57LC48F5JJ"}
{"@t":"2024-07-19T04:27:07.3327424Z","@mt":"The query uses a row limiting operator ('Skip'/'Take') without an 'OrderBy' operator. This may lead to unpredictable results. If the 'Distinct' operator is used after 'OrderBy', then make sure to use the 'OrderBy' operator after 'Distinct' as the ordering would otherwise get erased.","@l":"Warning","EventId":{"Id":10102,"Name":"Microsoft.EntityFrameworkCore.Query.RowLimitingOperationWithoutOrderByWarning"},"SourceContext":"Microsoft.EntityFrameworkCore.Query","ActionId":"c22724e8-2d42-436b-82aa-cd3101f125ae","ActionName":"SkeletonApi.Presentation.Controllers.NonProjectController.GetWithPagination (SkeletonApi.Presentation)","RequestId":"0HN57LC48F5JJ:00000003","RequestPath":"/api/non-project/paged","ConnectionId":"0HN57LC48F5JJ"}
{"@t":"2024-07-19T04:27:07.3339856Z","@mt":"The query uses a row limiting operator ('Skip'/'Take') without an 'OrderBy' operator. This may lead to unpredictable results. If the 'Distinct' operator is used after 'OrderBy', then make sure to use the 'OrderBy' operator after 'Distinct' as the ordering would otherwise get erased.","@l":"Warning","EventId":{"Id":10102,"Name":"Microsoft.EntityFrameworkCore.Query.RowLimitingOperationWithoutOrderByWarning"},"SourceContext":"Microsoft.EntityFrameworkCore.Query","ActionId":"c22724e8-2d42-436b-82aa-cd3101f125ae","ActionName":"SkeletonApi.Presentation.Controllers.NonProjectController.GetWithPagination (SkeletonApi.Presentation)","RequestId":"0HN57LC48F5JJ:00000003","RequestPath":"/api/non-project/paged","ConnectionId":"0HN57LC48F5JJ"}
{"@t":"2024-07-19T06:39:10.7287398Z","@mt":"Overriding address(es) '{addresses}'. Binding to endpoints defined via IConfiguration and/or UseKestrel() instead.","@l":"Warning","addresses":"http://0.0.0.0:8000","SourceContext":"Microsoft.AspNetCore.Server.Kestrel"}
{"@t":"2024-07-19T06:39:17.0419055Z","@mt":"Failed to determine the https port for redirect.","@l":"Warning","EventId":{"Id":3,"Name":"FailedToDeterminePort"},"SourceContext":"Microsoft.AspNetCore.HttpsPolicy.HttpsRedirectionMiddleware","RequestId":"0HN57NLVO626F:00000002","RequestPath":"/api/item/get-all-item","ConnectionId":"0HN57NLVO626F"}
{"@t":"2024-07-19T06:39:19.0093439Z","@mt":"Entity '{principalEntityType}' has a global query filter defined and is the required end of a relationship with the entity '{declaringEntityType}'. This may lead to unexpected results when the required entity is filtered out. Either configure the navigation as optional, or define matching query filters for both entities in the navigation. See https://go.microsoft.com/fwlink/?linkid=2131316 for more information.","@l":"Warning","principalEntityType":"Item","declaringEntityType":"NonProject","EventId":{"Id":10622,"Name":"Microsoft.EntityFrameworkCore.Model.Validation.PossibleIncorrectRequiredNavigationWithQueryFilterInteractionWarning"},"SourceContext":"Microsoft.EntityFrameworkCore.Model.Validation","ActionId":"282829b2-c88c-4881-ae79-ce0ac7a87ff0","ActionName":"SkeletonApi.Presentation.Controllers.EmployeeController.GetAll (SkeletonApi.Presentation)","RequestId":"0HN57NLVO626F:00000003","RequestPath":"/api/employee/get-all-employee","ConnectionId":"0HN57NLVO626F"}
{"@t":"2024-07-19T06:39:19.0106577Z","@mt":"Entity '{principalEntityType}' has a global query filter defined and is the required end of a relationship with the entity '{declaringEntityType}'. This may lead to unexpected results when the required entity is filtered out. Either configure the navigation as optional, or define matching query filters for both entities in the navigation. See https://go.microsoft.com/fwlink/?linkid=2131316 for more information.","@l":"Warning","principalEntityType":"MasterProject","declaringEntityType":"Project","EventId":{"Id":10622,"Name":"Microsoft.EntityFrameworkCore.Model.Validation.PossibleIncorrectRequiredNavigationWithQueryFilterInteractionWarning"},"SourceContext":"Microsoft.EntityFrameworkCore.Model.Validation","ActionId":"282829b2-c88c-4881-ae79-ce0ac7a87ff0","ActionName":"SkeletonApi.Presentation.Controllers.EmployeeController.GetAll (SkeletonApi.Presentation)","RequestId":"0HN57NLVO626F:00000003","RequestPath":"/api/employee/get-all-employee","ConnectionId":"0HN57NLVO626F"}
{"@t":"2024-07-19T06:39:19.0114139Z","@mt":"Entity '{principalEntityType}' has a global query filter defined and is the required end of a relationship with the entity '{declaringEntityType}'. This may lead to unexpected results when the required entity is filtered out. Either configure the navigation as optional, or define matching query filters for both entities in the navigation. See https://go.microsoft.com/fwlink/?linkid=2131316 for more information.","@l":"Warning","principalEntityType":"Item","declaringEntityType":"RequestItemWarehouse","EventId":{"Id":10622,"Name":"Microsoft.EntityFrameworkCore.Model.Validation.PossibleIncorrectRequiredNavigationWithQueryFilterInteractionWarning"},"SourceContext":"Microsoft.EntityFrameworkCore.Model.Validation","ActionId":"282829b2-c88c-4881-ae79-ce0ac7a87ff0","ActionName":"SkeletonApi.Presentation.Controllers.EmployeeController.GetAll (SkeletonApi.Presentation)","RequestId":"0HN57NLVO626F:00000003","RequestPath":"/api/employee/get-all-employee","ConnectionId":"0HN57NLVO626F"}
{"@t":"2024-07-19T06:39:19.0123886Z","@mt":"Entity '{principalEntityType}' has a global query filter defined and is the required end of a relationship with the entity '{declaringEntityType}'. This may lead to unexpected results when the required entity is filtered out. Either configure the navigation as optional, or define matching query filters for both entities in the navigation. See https://go.microsoft.com/fwlink/?linkid=2131316 for more information.","@l":"Warning","principalEntityType":"Item","declaringEntityType":"Warehouse","EventId":{"Id":10622,"Name":"Microsoft.EntityFrameworkCore.Model.Validation.PossibleIncorrectRequiredNavigationWithQueryFilterInteractionWarning"},"SourceContext":"Microsoft.EntityFrameworkCore.Model.Validation","ActionId":"282829b2-c88c-4881-ae79-ce0ac7a87ff0","ActionName":"SkeletonApi.Presentation.Controllers.EmployeeController.GetAll (SkeletonApi.Presentation)","RequestId":"0HN57NLVO626F:00000003","RequestPath":"/api/employee/get-all-employee","ConnectionId":"0HN57NLVO626F"}
{"@t":"2024-07-19T06:40:46.1483329Z","@mt":"Overriding address(es) '{addresses}'. Binding to endpoints defined via IConfiguration and/or UseKestrel() instead.","@l":"Warning","addresses":"http://0.0.0.0:8000","SourceContext":"Microsoft.AspNetCore.Server.Kestrel"}
{"@t":"2024-07-19T06:40:52.6798654Z","@mt":"Failed to determine the https port for redirect.","@l":"Warning","EventId":{"Id":3,"Name":"FailedToDeterminePort"},"SourceContext":"Microsoft.AspNetCore.HttpsPolicy.HttpsRedirectionMiddleware","RequestId":"0HN57NMU1C2UN:00000002","RequestPath":"/api/non-project/ef5d7c0e-f58e-4fac-b9c8-9576dc5343f3","ConnectionId":"0HN57NMU1C2UN"}
{"@t":"2024-07-19T06:40:54.1054932Z","@mt":"Entity '{principalEntityType}' has a global query filter defined and is the required end of a relationship with the entity '{declaringEntityType}'. This may lead to unexpected results when the required entity is filtered out. Either configure the navigation as optional, or define matching query filters for both entities in the navigation. See https://go.microsoft.com/fwlink/?linkid=2131316 for more information.","@l":"Warning","principalEntityType":"Item","declaringEntityType":"NonProject","EventId":{"Id":10622,"Name":"Microsoft.EntityFrameworkCore.Model.Validation.PossibleIncorrectRequiredNavigationWithQueryFilterInteractionWarning"},"SourceContext":"Microsoft.EntityFrameworkCore.Model.Validation","ActionId":"ca795310-5b8a-48cb-919f-060babeebd0d","ActionName":"SkeletonApi.Presentation.Controllers.NonProjectController.GetProject (SkeletonApi.Presentation)","RequestId":"0HN57NMU1C2UN:00000002","RequestPath":"/api/non-project/ef5d7c0e-f58e-4fac-b9c8-9576dc5343f3","ConnectionId":"0HN57NMU1C2UN"}
{"@t":"2024-07-19T06:40:54.1066980Z","@mt":"Entity '{principalEntityType}' has a global query filter defined and is the required end of a relationship with the entity '{declaringEntityType}'. This may lead to unexpected results when the required entity is filtered out. Either configure the navigation as optional, or define matching query filters for both entities in the navigation. See https://go.microsoft.com/fwlink/?linkid=2131316 for more information.","@l":"Warning","principalEntityType":"MasterProject","declaringEntityType":"Project","EventId":{"Id":10622,"Name":"Microsoft.EntityFrameworkCore.Model.Validation.PossibleIncorrectRequiredNavigationWithQueryFilterInteractionWarning"},"SourceContext":"Microsoft.EntityFrameworkCore.Model.Validation","ActionId":"ca795310-5b8a-48cb-919f-060babeebd0d","ActionName":"SkeletonApi.Presentation.Controllers.NonProjectController.GetProject (SkeletonApi.Presentation)","RequestId":"0HN57NMU1C2UN:00000002","RequestPath":"/api/non-project/ef5d7c0e-f58e-4fac-b9c8-9576dc5343f3","ConnectionId":"0HN57NMU1C2UN"}
{"@t":"2024-07-19T06:40:54.1076484Z","@mt":"Entity '{principalEntityType}' has a global query filter defined and is the required end of a relationship with the entity '{declaringEntityType}'. This may lead to unexpected results when the required entity is filtered out. Either configure the navigation as optional, or define matching query filters for both entities in the navigation. See https://go.microsoft.com/fwlink/?linkid=2131316 for more information.","@l":"Warning","principalEntityType":"Item","declaringEntityType":"RequestItemWarehouse","EventId":{"Id":10622,"Name":"Microsoft.EntityFrameworkCore.Model.Validation.PossibleIncorrectRequiredNavigationWithQueryFilterInteractionWarning"},"SourceContext":"Microsoft.EntityFrameworkCore.Model.Validation","ActionId":"ca795310-5b8a-48cb-919f-060babeebd0d","ActionName":"SkeletonApi.Presentation.Controllers.NonProjectController.GetProject (SkeletonApi.Presentation)","RequestId":"0HN57NMU1C2UN:00000002","RequestPath":"/api/non-project/ef5d7c0e-f58e-4fac-b9c8-9576dc5343f3","ConnectionId":"0HN57NMU1C2UN"}
{"@t":"2024-07-19T06:40:54.1084400Z","@mt":"Entity '{principalEntityType}' has a global query filter defined and is the required end of a relationship with the entity '{declaringEntityType}'. This may lead to unexpected results when the required entity is filtered out. Either configure the navigation as optional, or define matching query filters for both entities in the navigation. See https://go.microsoft.com/fwlink/?linkid=2131316 for more information.","@l":"Warning","principalEntityType":"Item","declaringEntityType":"Warehouse","EventId":{"Id":10622,"Name":"Microsoft.EntityFrameworkCore.Model.Validation.PossibleIncorrectRequiredNavigationWithQueryFilterInteractionWarning"},"SourceContext":"Microsoft.EntityFrameworkCore.Model.Validation","ActionId":"ca795310-5b8a-48cb-919f-060babeebd0d","ActionName":"SkeletonApi.Presentation.Controllers.NonProjectController.GetProject (SkeletonApi.Presentation)","RequestId":"0HN57NMU1C2UN:00000002","RequestPath":"/api/non-project/ef5d7c0e-f58e-4fac-b9c8-9576dc5343f3","ConnectionId":"0HN57NMU1C2UN"}
{"@t":"2024-07-19T06:41:24.2866967Z","@mt":"Overriding address(es) '{addresses}'. Binding to endpoints defined via IConfiguration and/or UseKestrel() instead.","@l":"Warning","addresses":"http://0.0.0.0:8000","SourceContext":"Microsoft.AspNetCore.Server.Kestrel"}
{"@t":"2024-07-19T06:41:29.7286016Z","@mt":"Failed to determine the https port for redirect.","@l":"Warning","EventId":{"Id":3,"Name":"FailedToDeterminePort"},"SourceContext":"Microsoft.AspNetCore.HttpsPolicy.HttpsRedirectionMiddleware","RequestId":"0HN57NN92M1SN:00000002","RequestPath":"/api/non-project/ef5d7c0e-f58e-4fac-b9c8-9576dc5343f3","ConnectionId":"0HN57NN92M1SN"}
{"@t":"2024-07-19T06:41:31.4704575Z","@mt":"Entity '{principalEntityType}' has a global query filter defined and is the required end of a relationship with the entity '{declaringEntityType}'. This may lead to unexpected results when the required entity is filtered out. Either configure the navigation as optional, or define matching query filters for both entities in the navigation. See https://go.microsoft.com/fwlink/?linkid=2131316 for more information.","@l":"Warning","principalEntityType":"Item","declaringEntityType":"NonProject","EventId":{"Id":10622,"Name":"Microsoft.EntityFrameworkCore.Model.Validation.PossibleIncorrectRequiredNavigationWithQueryFilterInteractionWarning"},"SourceContext":"Microsoft.EntityFrameworkCore.Model.Validation","ActionId":"6eed7436-a29c-41f2-b99e-d32c2657f871","ActionName":"SkeletonApi.Presentation.Controllers.NonProjectController.GetProject (SkeletonApi.Presentation)","RequestId":"0HN57NN92M1SN:00000002","RequestPath":"/api/non-project/ef5d7c0e-f58e-4fac-b9c8-9576dc5343f3","ConnectionId":"0HN57NN92M1SN"}
{"@t":"2024-07-19T06:41:31.4717731Z","@mt":"Entity '{principalEntityType}' has a global query filter defined and is the required end of a relationship with the entity '{declaringEntityType}'. This may lead to unexpected results when the required entity is filtered out. Either configure the navigation as optional, or define matching query filters for both entities in the navigation. See https://go.microsoft.com/fwlink/?linkid=2131316 for more information.","@l":"Warning","principalEntityType":"MasterProject","declaringEntityType":"Project","EventId":{"Id":10622,"Name":"Microsoft.EntityFrameworkCore.Model.Validation.PossibleIncorrectRequiredNavigationWithQueryFilterInteractionWarning"},"SourceContext":"Microsoft.EntityFrameworkCore.Model.Validation","ActionId":"6eed7436-a29c-41f2-b99e-d32c2657f871","ActionName":"SkeletonApi.Presentation.Controllers.NonProjectController.GetProject (SkeletonApi.Presentation)","RequestId":"0HN57NN92M1SN:00000002","RequestPath":"/api/non-project/ef5d7c0e-f58e-4fac-b9c8-9576dc5343f3","ConnectionId":"0HN57NN92M1SN"}
{"@t":"2024-07-19T06:41:31.4725063Z","@mt":"Entity '{principalEntityType}' has a global query filter defined and is the required end of a relationship with the entity '{declaringEntityType}'. This may lead to unexpected results when the required entity is filtered out. Either configure the navigation as optional, or define matching query filters for both entities in the navigation. See https://go.microsoft.com/fwlink/?linkid=2131316 for more information.","@l":"Warning","principalEntityType":"Item","declaringEntityType":"RequestItemWarehouse","EventId":{"Id":10622,"Name":"Microsoft.EntityFrameworkCore.Model.Validation.PossibleIncorrectRequiredNavigationWithQueryFilterInteractionWarning"},"SourceContext":"Microsoft.EntityFrameworkCore.Model.Validation","ActionId":"6eed7436-a29c-41f2-b99e-d32c2657f871","ActionName":"SkeletonApi.Presentation.Controllers.NonProjectController.GetProject (SkeletonApi.Presentation)","RequestId":"0HN57NN92M1SN:00000002","RequestPath":"/api/non-project/ef5d7c0e-f58e-4fac-b9c8-9576dc5343f3","ConnectionId":"0HN57NN92M1SN"}
{"@t":"2024-07-19T06:41:31.4732339Z","@mt":"Entity '{principalEntityType}' has a global query filter defined and is the required end of a relationship with the entity '{declaringEntityType}'. This may lead to unexpected results when the required entity is filtered out. Either configure the navigation as optional, or define matching query filters for both entities in the navigation. See https://go.microsoft.com/fwlink/?linkid=2131316 for more information.","@l":"Warning","principalEntityType":"Item","declaringEntityType":"Warehouse","EventId":{"Id":10622,"Name":"Microsoft.EntityFrameworkCore.Model.Validation.PossibleIncorrectRequiredNavigationWithQueryFilterInteractionWarning"},"SourceContext":"Microsoft.EntityFrameworkCore.Model.Validation","ActionId":"6eed7436-a29c-41f2-b99e-d32c2657f871","ActionName":"SkeletonApi.Presentation.Controllers.NonProjectController.GetProject (SkeletonApi.Presentation)","RequestId":"0HN57NN92M1SN:00000002","RequestPath":"/api/non-project/ef5d7c0e-f58e-4fac-b9c8-9576dc5343f3","ConnectionId":"0HN57NN92M1SN"}
{"@t":"2024-07-19T06:47:56.9802870Z","@mt":"The query uses a row limiting operator ('Skip'/'Take') without an 'OrderBy' operator. This may lead to unpredictable results. If the 'Distinct' operator is used after 'OrderBy', then make sure to use the 'OrderBy' operator after 'Distinct' as the ordering would otherwise get erased.","@l":"Warning","EventId":{"Id":10102,"Name":"Microsoft.EntityFrameworkCore.Query.RowLimitingOperationWithoutOrderByWarning"},"SourceContext":"Microsoft.EntityFrameworkCore.Query","ActionId":"b684bb84-ac95-45a6-852b-543979dc92bb","ActionName":"SkeletonApi.Presentation.Controllers.NonProjectController.GetWithPagination (SkeletonApi.Presentation)","RequestId":"0HN57NN92M1TP:00000003","RequestPath":"/api/non-project/paged","ConnectionId":"0HN57NN92M1TP"}
{"@t":"2024-07-19T06:47:56.9818477Z","@mt":"The query uses a row limiting operator ('Skip'/'Take') without an 'OrderBy' operator. This may lead to unpredictable results. If the 'Distinct' operator is used after 'OrderBy', then make sure to use the 'OrderBy' operator after 'Distinct' as the ordering would otherwise get erased.","@l":"Warning","EventId":{"Id":10102,"Name":"Microsoft.EntityFrameworkCore.Query.RowLimitingOperationWithoutOrderByWarning"},"SourceContext":"Microsoft.EntityFrameworkCore.Query","ActionId":"b684bb84-ac95-45a6-852b-543979dc92bb","ActionName":"SkeletonApi.Presentation.Controllers.NonProjectController.GetWithPagination (SkeletonApi.Presentation)","RequestId":"0HN57NN92M1TP:00000003","RequestPath":"/api/non-project/paged","ConnectionId":"0HN57NN92M1TP"}
{"@t":"2024-07-19T06:58:43.0888355Z","@mt":"Overriding address(es) '{addresses}'. Binding to endpoints defined via IConfiguration and/or UseKestrel() instead.","@l":"Warning","addresses":"http://0.0.0.0:8000","SourceContext":"Microsoft.AspNetCore.Server.Kestrel"}
{"@t":"2024-07-19T06:58:55.3548191Z","@mt":"Failed to determine the https port for redirect.","@l":"Warning","EventId":{"Id":3,"Name":"FailedToDeterminePort"},"SourceContext":"Microsoft.AspNetCore.HttpsPolicy.HttpsRedirectionMiddleware","RequestId":"0HN57O10LLT85:00000002","RequestPath":"/api/non-project/paged","ConnectionId":"0HN57O10LLT85"}
{"@t":"2024-07-19T06:58:58.0167983Z","@mt":"Entity '{principalEntityType}' has a global query filter defined and is the required end of a relationship with the entity '{declaringEntityType}'. This may lead to unexpected results when the required entity is filtered out. Either configure the navigation as optional, or define matching query filters for both entities in the navigation. See https://go.microsoft.com/fwlink/?linkid=2131316 for more information.","@l":"Warning","principalEntityType":"Item","declaringEntityType":"NonProject","EventId":{"Id":10622,"Name":"Microsoft.EntityFrameworkCore.Model.Validation.PossibleIncorrectRequiredNavigationWithQueryFilterInteractionWarning"},"SourceContext":"Microsoft.EntityFrameworkCore.Model.Validation","ActionId":"f9f5fc5a-0468-430e-93c6-7f14b0c7ed66","ActionName":"SkeletonApi.Presentation.Controllers.NonProjectController.GetWithPagination (SkeletonApi.Presentation)","RequestId":"0HN57O10LLT85:00000002","RequestPath":"/api/non-project/paged","ConnectionId":"0HN57O10LLT85"}
{"@t":"2024-07-19T06:58:58.0186795Z","@mt":"Entity '{principalEntityType}' has a global query filter defined and is the required end of a relationship with the entity '{declaringEntityType}'. This may lead to unexpected results when the required entity is filtered out. Either configure the navigation as optional, or define matching query filters for both entities in the navigation. See https://go.microsoft.com/fwlink/?linkid=2131316 for more information.","@l":"Warning","principalEntityType":"MasterProject","declaringEntityType":"Project","EventId":{"Id":10622,"Name":"Microsoft.EntityFrameworkCore.Model.Validation.PossibleIncorrectRequiredNavigationWithQueryFilterInteractionWarning"},"SourceContext":"Microsoft.EntityFrameworkCore.Model.Validation","ActionId":"f9f5fc5a-0468-430e-93c6-7f14b0c7ed66","ActionName":"SkeletonApi.Presentation.Controllers.NonProjectController.GetWithPagination (SkeletonApi.Presentation)","RequestId":"0HN57O10LLT85:00000002","RequestPath":"/api/non-project/paged","ConnectionId":"0HN57O10LLT85"}
{"@t":"2024-07-19T06:58:58.0195013Z","@mt":"Entity '{principalEntityType}' has a global query filter defined and is the required end of a relationship with the entity '{declaringEntityType}'. This may lead to unexpected results when the required entity is filtered out. Either configure the navigation as optional, or define matching query filters for both entities in the navigation. See https://go.microsoft.com/fwlink/?linkid=2131316 for more information.","@l":"Warning","principalEntityType":"Item","declaringEntityType":"RequestItemWarehouse","EventId":{"Id":10622,"Name":"Microsoft.EntityFrameworkCore.Model.Validation.PossibleIncorrectRequiredNavigationWithQueryFilterInteractionWarning"},"SourceContext":"Microsoft.EntityFrameworkCore.Model.Validation","ActionId":"f9f5fc5a-0468-430e-93c6-7f14b0c7ed66","ActionName":"SkeletonApi.Presentation.Controllers.NonProjectController.GetWithPagination (SkeletonApi.Presentation)","RequestId":"0HN57O10LLT85:00000002","RequestPath":"/api/non-project/paged","ConnectionId":"0HN57O10LLT85"}
{"@t":"2024-07-19T06:58:58.0224475Z","@mt":"Entity '{principalEntityType}' has a global query filter defined and is the required end of a relationship with the entity '{declaringEntityType}'. This may lead to unexpected results when the required entity is filtered out. Either configure the navigation as optional, or define matching query filters for both entities in the navigation. See https://go.microsoft.com/fwlink/?linkid=2131316 for more information.","@l":"Warning","principalEntityType":"Item","declaringEntityType":"Warehouse","EventId":{"Id":10622,"Name":"Microsoft.EntityFrameworkCore.Model.Validation.PossibleIncorrectRequiredNavigationWithQueryFilterInteractionWarning"},"SourceContext":"Microsoft.EntityFrameworkCore.Model.Validation","ActionId":"f9f5fc5a-0468-430e-93c6-7f14b0c7ed66","ActionName":"SkeletonApi.Presentation.Controllers.NonProjectController.GetWithPagination (SkeletonApi.Presentation)","RequestId":"0HN57O10LLT85:00000002","RequestPath":"/api/non-project/paged","ConnectionId":"0HN57O10LLT85"}
{"@t":"2024-07-19T06:59:00.6808501Z","@mt":"The query uses a row limiting operator ('Skip'/'Take') without an 'OrderBy' operator. This may lead to unpredictable results. If the 'Distinct' operator is used after 'OrderBy', then make sure to use the 'OrderBy' operator after 'Distinct' as the ordering would otherwise get erased.","@l":"Warning","EventId":{"Id":10102,"Name":"Microsoft.EntityFrameworkCore.Query.RowLimitingOperationWithoutOrderByWarning"},"SourceContext":"Microsoft.EntityFrameworkCore.Query","ActionId":"f9f5fc5a-0468-430e-93c6-7f14b0c7ed66","ActionName":"SkeletonApi.Presentation.Controllers.NonProjectController.GetWithPagination (SkeletonApi.Presentation)","RequestId":"0HN57O10LLT85:00000002","RequestPath":"/api/non-project/paged","ConnectionId":"0HN57O10LLT85"}
{"@t":"2024-07-19T06:59:00.6824702Z","@mt":"The query uses a row limiting operator ('Skip'/'Take') without an 'OrderBy' operator. This may lead to unpredictable results. If the 'Distinct' operator is used after 'OrderBy', then make sure to use the 'OrderBy' operator after 'Distinct' as the ordering would otherwise get erased.","@l":"Warning","EventId":{"Id":10102,"Name":"Microsoft.EntityFrameworkCore.Query.RowLimitingOperationWithoutOrderByWarning"},"SourceContext":"Microsoft.EntityFrameworkCore.Query","ActionId":"f9f5fc5a-0468-430e-93c6-7f14b0c7ed66","ActionName":"SkeletonApi.Presentation.Controllers.NonProjectController.GetWithPagination (SkeletonApi.Presentation)","RequestId":"0HN57O10LLT85:00000002","RequestPath":"/api/non-project/paged","ConnectionId":"0HN57O10LLT85"}
{"@t":"2024-07-19T06:59:22.4610990Z","@mt":"Overriding address(es) '{addresses}'. Binding to endpoints defined via IConfiguration and/or UseKestrel() instead.","@l":"Warning","addresses":"http://0.0.0.0:8000","SourceContext":"Microsoft.AspNetCore.Server.Kestrel"}
{"@t":"2024-07-19T06:59:32.6071960Z","@mt":"Failed to determine the https port for redirect.","@l":"Warning","EventId":{"Id":3,"Name":"FailedToDeterminePort"},"SourceContext":"Microsoft.AspNetCore.HttpsPolicy.HttpsRedirectionMiddleware","RequestId":"0HN57O1BOUC45:00000002","RequestPath":"/api/non-project/paged","ConnectionId":"0HN57O1BOUC45"}
{"@t":"2024-07-19T06:59:35.4772956Z","@mt":"Entity '{principalEntityType}' has a global query filter defined and is the required end of a relationship with the entity '{declaringEntityType}'. This may lead to unexpected results when the required entity is filtered out. Either configure the navigation as optional, or define matching query filters for both entities in the navigation. See https://go.microsoft.com/fwlink/?linkid=2131316 for more information.","@l":"Warning","principalEntityType":"Item","declaringEntityType":"NonProject","EventId":{"Id":10622,"Name":"Microsoft.EntityFrameworkCore.Model.Validation.PossibleIncorrectRequiredNavigationWithQueryFilterInteractionWarning"},"SourceContext":"Microsoft.EntityFrameworkCore.Model.Validation","ActionId":"ac3e2e41-500e-4988-b549-3285e6e831c5","ActionName":"SkeletonApi.Presentation.Controllers.NonProjectController.GetWithPagination (SkeletonApi.Presentation)","RequestId":"0HN57O1BOUC45:00000002","RequestPath":"/api/non-project/paged","ConnectionId":"0HN57O1BOUC45"}
{"@t":"2024-07-19T06:59:35.5590412Z","@mt":"Entity '{principalEntityType}' has a global query filter defined and is the required end of a relationship with the entity '{declaringEntityType}'. This may lead to unexpected results when the required entity is filtered out. Either configure the navigation as optional, or define matching query filters for both entities in the navigation. See https://go.microsoft.com/fwlink/?linkid=2131316 for more information.","@l":"Warning","principalEntityType":"MasterProject","declaringEntityType":"Project","EventId":{"Id":10622,"Name":"Microsoft.EntityFrameworkCore.Model.Validation.PossibleIncorrectRequiredNavigationWithQueryFilterInteractionWarning"},"SourceContext":"Microsoft.EntityFrameworkCore.Model.Validation","ActionId":"ac3e2e41-500e-4988-b549-3285e6e831c5","ActionName":"SkeletonApi.Presentation.Controllers.NonProjectController.GetWithPagination (SkeletonApi.Presentation)","RequestId":"0HN57O1BOUC45:00000002","RequestPath":"/api/non-project/paged","ConnectionId":"0HN57O1BOUC45"}
{"@t":"2024-07-19T06:59:35.5614253Z","@mt":"Entity '{principalEntityType}' has a global query filter defined and is the required end of a relationship with the entity '{declaringEntityType}'. This may lead to unexpected results when the required entity is filtered out. Either configure the navigation as optional, or define matching query filters for both entities in the navigation. See https://go.microsoft.com/fwlink/?linkid=2131316 for more information.","@l":"Warning","principalEntityType":"Item","declaringEntityType":"RequestItemWarehouse","EventId":{"Id":10622,"Name":"Microsoft.EntityFrameworkCore.Model.Validation.PossibleIncorrectRequiredNavigationWithQueryFilterInteractionWarning"},"SourceContext":"Microsoft.EntityFrameworkCore.Model.Validation","ActionId":"ac3e2e41-500e-4988-b549-3285e6e831c5","ActionName":"SkeletonApi.Presentation.Controllers.NonProjectController.GetWithPagination (SkeletonApi.Presentation)","RequestId":"0HN57O1BOUC45:00000002","RequestPath":"/api/non-project/paged","ConnectionId":"0HN57O1BOUC45"}
{"@t":"2024-07-19T06:59:35.5638467Z","@mt":"Entity '{principalEntityType}' has a global query filter defined and is the required end of a relationship with the entity '{declaringEntityType}'. This may lead to unexpected results when the required entity is filtered out. Either configure the navigation as optional, or define matching query filters for both entities in the navigation. See https://go.microsoft.com/fwlink/?linkid=2131316 for more information.","@l":"Warning","principalEntityType":"Item","declaringEntityType":"Warehouse","EventId":{"Id":10622,"Name":"Microsoft.EntityFrameworkCore.Model.Validation.PossibleIncorrectRequiredNavigationWithQueryFilterInteractionWarning"},"SourceContext":"Microsoft.EntityFrameworkCore.Model.Validation","ActionId":"ac3e2e41-500e-4988-b549-3285e6e831c5","ActionName":"SkeletonApi.Presentation.Controllers.NonProjectController.GetWithPagination (SkeletonApi.Presentation)","RequestId":"0HN57O1BOUC45:00000002","RequestPath":"/api/non-project/paged","ConnectionId":"0HN57O1BOUC45"}
{"@t":"2024-07-19T06:59:38.2237862Z","@mt":"The query uses a row limiting operator ('Skip'/'Take') without an 'OrderBy' operator. This may lead to unpredictable results. If the 'Distinct' operator is used after 'OrderBy', then make sure to use the 'OrderBy' operator after 'Distinct' as the ordering would otherwise get erased.","@l":"Warning","EventId":{"Id":10102,"Name":"Microsoft.EntityFrameworkCore.Query.RowLimitingOperationWithoutOrderByWarning"},"SourceContext":"Microsoft.EntityFrameworkCore.Query","ActionId":"ac3e2e41-500e-4988-b549-3285e6e831c5","ActionName":"SkeletonApi.Presentation.Controllers.NonProjectController.GetWithPagination (SkeletonApi.Presentation)","RequestId":"0HN57O1BOUC45:00000002","RequestPath":"/api/non-project/paged","ConnectionId":"0HN57O1BOUC45"}
{"@t":"2024-07-19T06:59:38.2468699Z","@mt":"The query uses a row limiting operator ('Skip'/'Take') without an 'OrderBy' operator. This may lead to unpredictable results. If the 'Distinct' operator is used after 'OrderBy', then make sure to use the 'OrderBy' operator after 'Distinct' as the ordering would otherwise get erased.","@l":"Warning","EventId":{"Id":10102,"Name":"Microsoft.EntityFrameworkCore.Query.RowLimitingOperationWithoutOrderByWarning"},"SourceContext":"Microsoft.EntityFrameworkCore.Query","ActionId":"ac3e2e41-500e-4988-b549-3285e6e831c5","ActionName":"SkeletonApi.Presentation.Controllers.NonProjectController.GetWithPagination (SkeletonApi.Presentation)","RequestId":"0HN57O1BOUC45:00000002","RequestPath":"/api/non-project/paged","ConnectionId":"0HN57O1BOUC45"}
{"@t":"2024-07-19T07:30:54.6675257Z","@mt":"Compiling a query which loads related collections for more than one collection navigation, either via 'Include' or through projection, but no 'QuerySplittingBehavior' has been configured. By default, Entity Framework will use 'QuerySplittingBehavior.SingleQuery', which can potentially result in slow query performance. See https://go.microsoft.com/fwlink/?linkid=2134277 for more information. To identify the query that's triggering this warning call 'ConfigureWarnings(w => w.Throw(RelationalEventId.MultipleCollectionIncludeWarning))'.","@l":"Warning","EventId":{"Id":20504,"Name":"Microsoft.EntityFrameworkCore.Query.MultipleCollectionIncludeWarning"},"SourceContext":"Microsoft.EntityFrameworkCore.Query","ActionId":"0b0bbf2c-ae6a-4844-a0dc-bdfd8b579c51","ActionName":"SkeletonApi.Presentation.Controllers.ProjectController.Get (SkeletonApi.Presentation)","RequestId":"0HN57O1BOUC78:00000003","RequestPath":"/api/project/4d9e914c-f4d7-455a-a5a3-3919a501775f","ConnectionId":"0HN57O1BOUC78"}
