{"@t":"2024-06-25T09:38:11.3429039Z","@mt":"Overriding address(es) '{addresses}'. Binding to endpoints defined via IConfiguration and/or UseKestrel() instead.","@l":"Warning","addresses":"http://0.0.0.0:5000","SourceContext":"Microsoft.AspNetCore.Server.Kestrel"}
{"@t":"2024-06-25T09:38:39.2527719Z","@mt":"Overriding address(es) '{addresses}'. Binding to endpoints defined via IConfiguration and/or UseKestrel() instead.","@l":"Warning","addresses":"http://0.0.0.0:5000","SourceContext":"Microsoft.AspNetCore.Server.Kestrel"}
{"@t":"2024-06-25T09:39:22.3122917Z","@mt":"Failed to determine the https port for redirect.","@l":"Warning","EventId":{"Id":3,"Name":"FailedToDeterminePort"},"SourceContext":"Microsoft.AspNetCore.HttpsPolicy.HttpsRedirectionMiddleware","RequestId":"0HN4KVAG86N8V:00000007","RequestPath":"/api/master-project/paged","ConnectionId":"0HN4KVAG86N8V"}
{"@t":"2024-06-25T09:39:24.0850867Z","@mt":"Entity '{principalEntityType}' has a global query filter defined and is the required end of a relationship with the entity '{declaringEntityType}'. This may lead to unexpected results when the required entity is filtered out. Either configure the navigation as optional, or define matching query filters for both entities in the navigation. See https://go.microsoft.com/fwlink/?linkid=2131316 for more information.","@l":"Warning","principalEntityType":"MasterProject","declaringEntityType":"CashAtBank","EventId":{"Id":10622,"Name":"Microsoft.EntityFrameworkCore.Model.Validation.PossibleIncorrectRequiredNavigationWithQueryFilterInteractionWarning"},"SourceContext":"Microsoft.EntityFrameworkCore.Model.Validation","ActionId":"50967884-3d4b-4420-8b0e-5ae204e532df","ActionName":"SkeletonApi.Presentation.Controllers.MasterProjectController.GetWithPagination (SkeletonApi.Presentation)","RequestId":"0HN4KVAG86N8V:00000007","RequestPath":"/api/master-project/paged","ConnectionId":"0HN4KVAG86N8V"}
{"@t":"2024-06-25T09:39:24.0865760Z","@mt":"Entity '{principalEntityType}' has a global query filter defined and is the required end of a relationship with the entity '{declaringEntityType}'. This may lead to unexpected results when the required entity is filtered out. Either configure the navigation as optional, or define matching query filters for both entities in the navigation. See https://go.microsoft.com/fwlink/?linkid=2131316 for more information.","@l":"Warning","principalEntityType":"MasterProject","declaringEntityType":"Project","EventId":{"Id":10622,"Name":"Microsoft.EntityFrameworkCore.Model.Validation.PossibleIncorrectRequiredNavigationWithQueryFilterInteractionWarning"},"SourceContext":"Microsoft.EntityFrameworkCore.Model.Validation","ActionId":"50967884-3d4b-4420-8b0e-5ae204e532df","ActionName":"SkeletonApi.Presentation.Controllers.MasterProjectController.GetWithPagination (SkeletonApi.Presentation)","RequestId":"0HN4KVAG86N8V:00000007","RequestPath":"/api/master-project/paged","ConnectionId":"0HN4KVAG86N8V"}
{"@t":"2024-06-25T09:39:24.0878694Z","@mt":"Entity '{principalEntityType}' has a global query filter defined and is the required end of a relationship with the entity '{declaringEntityType}'. This may lead to unexpected results when the required entity is filtered out. Either configure the navigation as optional, or define matching query filters for both entities in the navigation. See https://go.microsoft.com/fwlink/?linkid=2131316 for more information.","@l":"Warning","principalEntityType":"Item","declaringEntityType":"RequestItemWarehouse","EventId":{"Id":10622,"Name":"Microsoft.EntityFrameworkCore.Model.Validation.PossibleIncorrectRequiredNavigationWithQueryFilterInteractionWarning"},"SourceContext":"Microsoft.EntityFrameworkCore.Model.Validation","ActionId":"50967884-3d4b-4420-8b0e-5ae204e532df","ActionName":"SkeletonApi.Presentation.Controllers.MasterProjectController.GetWithPagination (SkeletonApi.Presentation)","RequestId":"0HN4KVAG86N8V:00000007","RequestPath":"/api/master-project/paged","ConnectionId":"0HN4KVAG86N8V"}
{"@t":"2024-06-25T09:39:24.0884061Z","@mt":"Entity '{principalEntityType}' has a global query filter defined and is the required end of a relationship with the entity '{declaringEntityType}'. This may lead to unexpected results when the required entity is filtered out. Either configure the navigation as optional, or define matching query filters for both entities in the navigation. See https://go.microsoft.com/fwlink/?linkid=2131316 for more information.","@l":"Warning","principalEntityType":"Item","declaringEntityType":"Warehouse","EventId":{"Id":10622,"Name":"Microsoft.EntityFrameworkCore.Model.Validation.PossibleIncorrectRequiredNavigationWithQueryFilterInteractionWarning"},"SourceContext":"Microsoft.EntityFrameworkCore.Model.Validation","ActionId":"50967884-3d4b-4420-8b0e-5ae204e532df","ActionName":"SkeletonApi.Presentation.Controllers.MasterProjectController.GetWithPagination (SkeletonApi.Presentation)","RequestId":"0HN4KVAG86N8V:00000007","RequestPath":"/api/master-project/paged","ConnectionId":"0HN4KVAG86N8V"}
{"@t":"2024-06-25T09:40:52.8454366Z","@mt":"Overriding address(es) '{addresses}'. Binding to endpoints defined via IConfiguration and/or UseKestrel() instead.","@l":"Warning","addresses":"http://0.0.0.0:5000","SourceContext":"Microsoft.AspNetCore.Server.Kestrel"}
{"@t":"2024-06-25T09:41:27.9313447Z","@mt":"Failed to determine the https port for redirect.","@l":"Warning","EventId":{"Id":3,"Name":"FailedToDeterminePort"},"SourceContext":"Microsoft.AspNetCore.HttpsPolicy.HttpsRedirectionMiddleware","RequestId":"0HN4KVBU7S9B4:00000002","RequestPath":"/api/master-project/paged","ConnectionId":"0HN4KVBU7S9B4"}
{"@t":"2024-06-25T09:41:29.1630182Z","@mt":"Entity '{principalEntityType}' has a global query filter defined and is the required end of a relationship with the entity '{declaringEntityType}'. This may lead to unexpected results when the required entity is filtered out. Either configure the navigation as optional, or define matching query filters for both entities in the navigation. See https://go.microsoft.com/fwlink/?linkid=2131316 for more information.","@l":"Warning","principalEntityType":"MasterProject","declaringEntityType":"CashAtBank","EventId":{"Id":10622,"Name":"Microsoft.EntityFrameworkCore.Model.Validation.PossibleIncorrectRequiredNavigationWithQueryFilterInteractionWarning"},"SourceContext":"Microsoft.EntityFrameworkCore.Model.Validation","ActionId":"bc6f863f-9ba8-4142-82fd-7fc6498da749","ActionName":"SkeletonApi.Presentation.Controllers.MasterProjectController.GetWithPagination (SkeletonApi.Presentation)","RequestId":"0HN4KVBU7S9B4:00000002","RequestPath":"/api/master-project/paged","ConnectionId":"0HN4KVBU7S9B4"}
{"@t":"2024-06-25T09:41:29.1653548Z","@mt":"Entity '{principalEntityType}' has a global query filter defined and is the required end of a relationship with the entity '{declaringEntityType}'. This may lead to unexpected results when the required entity is filtered out. Either configure the navigation as optional, or define matching query filters for both entities in the navigation. See https://go.microsoft.com/fwlink/?linkid=2131316 for more information.","@l":"Warning","principalEntityType":"MasterProject","declaringEntityType":"Project","EventId":{"Id":10622,"Name":"Microsoft.EntityFrameworkCore.Model.Validation.PossibleIncorrectRequiredNavigationWithQueryFilterInteractionWarning"},"SourceContext":"Microsoft.EntityFrameworkCore.Model.Validation","ActionId":"bc6f863f-9ba8-4142-82fd-7fc6498da749","ActionName":"SkeletonApi.Presentation.Controllers.MasterProjectController.GetWithPagination (SkeletonApi.Presentation)","RequestId":"0HN4KVBU7S9B4:00000002","RequestPath":"/api/master-project/paged","ConnectionId":"0HN4KVBU7S9B4"}
{"@t":"2024-06-25T09:41:29.1661718Z","@mt":"Entity '{principalEntityType}' has a global query filter defined and is the required end of a relationship with the entity '{declaringEntityType}'. This may lead to unexpected results when the required entity is filtered out. Either configure the navigation as optional, or define matching query filters for both entities in the navigation. See https://go.microsoft.com/fwlink/?linkid=2131316 for more information.","@l":"Warning","principalEntityType":"Item","declaringEntityType":"RequestItemWarehouse","EventId":{"Id":10622,"Name":"Microsoft.EntityFrameworkCore.Model.Validation.PossibleIncorrectRequiredNavigationWithQueryFilterInteractionWarning"},"SourceContext":"Microsoft.EntityFrameworkCore.Model.Validation","ActionId":"bc6f863f-9ba8-4142-82fd-7fc6498da749","ActionName":"SkeletonApi.Presentation.Controllers.MasterProjectController.GetWithPagination (SkeletonApi.Presentation)","RequestId":"0HN4KVBU7S9B4:00000002","RequestPath":"/api/master-project/paged","ConnectionId":"0HN4KVBU7S9B4"}
{"@t":"2024-06-25T09:41:29.1669219Z","@mt":"Entity '{principalEntityType}' has a global query filter defined and is the required end of a relationship with the entity '{declaringEntityType}'. This may lead to unexpected results when the required entity is filtered out. Either configure the navigation as optional, or define matching query filters for both entities in the navigation. See https://go.microsoft.com/fwlink/?linkid=2131316 for more information.","@l":"Warning","principalEntityType":"Item","declaringEntityType":"Warehouse","EventId":{"Id":10622,"Name":"Microsoft.EntityFrameworkCore.Model.Validation.PossibleIncorrectRequiredNavigationWithQueryFilterInteractionWarning"},"SourceContext":"Microsoft.EntityFrameworkCore.Model.Validation","ActionId":"bc6f863f-9ba8-4142-82fd-7fc6498da749","ActionName":"SkeletonApi.Presentation.Controllers.MasterProjectController.GetWithPagination (SkeletonApi.Presentation)","RequestId":"0HN4KVBU7S9B4:00000002","RequestPath":"/api/master-project/paged","ConnectionId":"0HN4KVBU7S9B4"}
{"@t":"2024-06-25T09:41:46.8148370Z","@mt":"Overriding address(es) '{addresses}'. Binding to endpoints defined via IConfiguration and/or UseKestrel() instead.","@l":"Warning","addresses":"http://0.0.0.0:5000","SourceContext":"Microsoft.AspNetCore.Server.Kestrel"}
{"@t":"2024-06-25T09:41:58.7601593Z","@mt":"Failed to determine the https port for redirect.","@l":"Warning","EventId":{"Id":3,"Name":"FailedToDeterminePort"},"SourceContext":"Microsoft.AspNetCore.HttpsPolicy.HttpsRedirectionMiddleware","RequestId":"0HN4KVC7DMSSL:00000002","RequestPath":"/api/master-project/paged","ConnectionId":"0HN4KVC7DMSSL"}
{"@t":"2024-06-25T09:42:00.0416065Z","@mt":"Entity '{principalEntityType}' has a global query filter defined and is the required end of a relationship with the entity '{declaringEntityType}'. This may lead to unexpected results when the required entity is filtered out. Either configure the navigation as optional, or define matching query filters for both entities in the navigation. See https://go.microsoft.com/fwlink/?linkid=2131316 for more information.","@l":"Warning","principalEntityType":"MasterProject","declaringEntityType":"CashAtBank","EventId":{"Id":10622,"Name":"Microsoft.EntityFrameworkCore.Model.Validation.PossibleIncorrectRequiredNavigationWithQueryFilterInteractionWarning"},"SourceContext":"Microsoft.EntityFrameworkCore.Model.Validation","ActionId":"be57237d-38c4-43a7-9118-9cac0c73cafa","ActionName":"SkeletonApi.Presentation.Controllers.MasterProjectController.GetWithPagination (SkeletonApi.Presentation)","RequestId":"0HN4KVC7DMSSL:00000002","RequestPath":"/api/master-project/paged","ConnectionId":"0HN4KVC7DMSSL"}
{"@t":"2024-06-25T09:42:00.0429543Z","@mt":"Entity '{principalEntityType}' has a global query filter defined and is the required end of a relationship with the entity '{declaringEntityType}'. This may lead to unexpected results when the required entity is filtered out. Either configure the navigation as optional, or define matching query filters for both entities in the navigation. See https://go.microsoft.com/fwlink/?linkid=2131316 for more information.","@l":"Warning","principalEntityType":"MasterProject","declaringEntityType":"Project","EventId":{"Id":10622,"Name":"Microsoft.EntityFrameworkCore.Model.Validation.PossibleIncorrectRequiredNavigationWithQueryFilterInteractionWarning"},"SourceContext":"Microsoft.EntityFrameworkCore.Model.Validation","ActionId":"be57237d-38c4-43a7-9118-9cac0c73cafa","ActionName":"SkeletonApi.Presentation.Controllers.MasterProjectController.GetWithPagination (SkeletonApi.Presentation)","RequestId":"0HN4KVC7DMSSL:00000002","RequestPath":"/api/master-project/paged","ConnectionId":"0HN4KVC7DMSSL"}
{"@t":"2024-06-25T09:42:00.0438516Z","@mt":"Entity '{principalEntityType}' has a global query filter defined and is the required end of a relationship with the entity '{declaringEntityType}'. This may lead to unexpected results when the required entity is filtered out. Either configure the navigation as optional, or define matching query filters for both entities in the navigation. See https://go.microsoft.com/fwlink/?linkid=2131316 for more information.","@l":"Warning","principalEntityType":"Item","declaringEntityType":"RequestItemWarehouse","EventId":{"Id":10622,"Name":"Microsoft.EntityFrameworkCore.Model.Validation.PossibleIncorrectRequiredNavigationWithQueryFilterInteractionWarning"},"SourceContext":"Microsoft.EntityFrameworkCore.Model.Validation","ActionId":"be57237d-38c4-43a7-9118-9cac0c73cafa","ActionName":"SkeletonApi.Presentation.Controllers.MasterProjectController.GetWithPagination (SkeletonApi.Presentation)","RequestId":"0HN4KVC7DMSSL:00000002","RequestPath":"/api/master-project/paged","ConnectionId":"0HN4KVC7DMSSL"}
{"@t":"2024-06-25T09:42:00.0443958Z","@mt":"Entity '{principalEntityType}' has a global query filter defined and is the required end of a relationship with the entity '{declaringEntityType}'. This may lead to unexpected results when the required entity is filtered out. Either configure the navigation as optional, or define matching query filters for both entities in the navigation. See https://go.microsoft.com/fwlink/?linkid=2131316 for more information.","@l":"Warning","principalEntityType":"Item","declaringEntityType":"Warehouse","EventId":{"Id":10622,"Name":"Microsoft.EntityFrameworkCore.Model.Validation.PossibleIncorrectRequiredNavigationWithQueryFilterInteractionWarning"},"SourceContext":"Microsoft.EntityFrameworkCore.Model.Validation","ActionId":"be57237d-38c4-43a7-9118-9cac0c73cafa","ActionName":"SkeletonApi.Presentation.Controllers.MasterProjectController.GetWithPagination (SkeletonApi.Presentation)","RequestId":"0HN4KVC7DMSSL:00000002","RequestPath":"/api/master-project/paged","ConnectionId":"0HN4KVC7DMSSL"}
{"@t":"2024-06-25T09:42:28.1905248Z","@mt":"Overriding address(es) '{addresses}'. Binding to endpoints defined via IConfiguration and/or UseKestrel() instead.","@l":"Warning","addresses":"http://0.0.0.0:5000","SourceContext":"Microsoft.AspNetCore.Server.Kestrel"}
{"@t":"2024-06-25T09:45:23.8712139Z","@mt":"Failed to determine the https port for redirect.","@l":"Warning","EventId":{"Id":3,"Name":"FailedToDeterminePort"},"SourceContext":"Microsoft.AspNetCore.HttpsPolicy.HttpsRedirectionMiddleware","RequestId":"0HN4KVE4I4GIL:00000002","RequestPath":"/api/supplier/get-all-supplier","ConnectionId":"0HN4KVE4I4GIL"}
{"@t":"2024-06-25T09:45:25.1978537Z","@mt":"Entity '{principalEntityType}' has a global query filter defined and is the required end of a relationship with the entity '{declaringEntityType}'. This may lead to unexpected results when the required entity is filtered out. Either configure the navigation as optional, or define matching query filters for both entities in the navigation. See https://go.microsoft.com/fwlink/?linkid=2131316 for more information.","@l":"Warning","principalEntityType":"MasterProject","declaringEntityType":"CashAtBank","EventId":{"Id":10622,"Name":"Microsoft.EntityFrameworkCore.Model.Validation.PossibleIncorrectRequiredNavigationWithQueryFilterInteractionWarning"},"SourceContext":"Microsoft.EntityFrameworkCore.Model.Validation","ActionId":"abdc2555-81b6-4695-a545-affce4aae55d","ActionName":"SkeletonApi.Presentation.Controllers.SupplierController.GetAll (SkeletonApi.Presentation)","RequestId":"0HN4KVE4I4GIK:00000003","RequestPath":"/api/supplier/get-all-supplier","ConnectionId":"0HN4KVE4I4GIK"}
{"@t":"2024-06-25T09:45:25.1995007Z","@mt":"Entity '{principalEntityType}' has a global query filter defined and is the required end of a relationship with the entity '{declaringEntityType}'. This may lead to unexpected results when the required entity is filtered out. Either configure the navigation as optional, or define matching query filters for both entities in the navigation. See https://go.microsoft.com/fwlink/?linkid=2131316 for more information.","@l":"Warning","principalEntityType":"MasterProject","declaringEntityType":"Project","EventId":{"Id":10622,"Name":"Microsoft.EntityFrameworkCore.Model.Validation.PossibleIncorrectRequiredNavigationWithQueryFilterInteractionWarning"},"SourceContext":"Microsoft.EntityFrameworkCore.Model.Validation","ActionId":"abdc2555-81b6-4695-a545-affce4aae55d","ActionName":"SkeletonApi.Presentation.Controllers.SupplierController.GetAll (SkeletonApi.Presentation)","RequestId":"0HN4KVE4I4GIK:00000003","RequestPath":"/api/supplier/get-all-supplier","ConnectionId":"0HN4KVE4I4GIK"}
{"@t":"2024-06-25T09:45:25.2008732Z","@mt":"Entity '{principalEntityType}' has a global query filter defined and is the required end of a relationship with the entity '{declaringEntityType}'. This may lead to unexpected results when the required entity is filtered out. Either configure the navigation as optional, or define matching query filters for both entities in the navigation. See https://go.microsoft.com/fwlink/?linkid=2131316 for more information.","@l":"Warning","principalEntityType":"Item","declaringEntityType":"RequestItemWarehouse","EventId":{"Id":10622,"Name":"Microsoft.EntityFrameworkCore.Model.Validation.PossibleIncorrectRequiredNavigationWithQueryFilterInteractionWarning"},"SourceContext":"Microsoft.EntityFrameworkCore.Model.Validation","ActionId":"abdc2555-81b6-4695-a545-affce4aae55d","ActionName":"SkeletonApi.Presentation.Controllers.SupplierController.GetAll (SkeletonApi.Presentation)","RequestId":"0HN4KVE4I4GIK:00000003","RequestPath":"/api/supplier/get-all-supplier","ConnectionId":"0HN4KVE4I4GIK"}
{"@t":"2024-06-25T09:45:25.2014557Z","@mt":"Entity '{principalEntityType}' has a global query filter defined and is the required end of a relationship with the entity '{declaringEntityType}'. This may lead to unexpected results when the required entity is filtered out. Either configure the navigation as optional, or define matching query filters for both entities in the navigation. See https://go.microsoft.com/fwlink/?linkid=2131316 for more information.","@l":"Warning","principalEntityType":"Item","declaringEntityType":"Warehouse","EventId":{"Id":10622,"Name":"Microsoft.EntityFrameworkCore.Model.Validation.PossibleIncorrectRequiredNavigationWithQueryFilterInteractionWarning"},"SourceContext":"Microsoft.EntityFrameworkCore.Model.Validation","ActionId":"abdc2555-81b6-4695-a545-affce4aae55d","ActionName":"SkeletonApi.Presentation.Controllers.SupplierController.GetAll (SkeletonApi.Presentation)","RequestId":"0HN4KVE4I4GIK:00000003","RequestPath":"/api/supplier/get-all-supplier","ConnectionId":"0HN4KVE4I4GIK"}
{"@t":"2024-06-25T09:50:10.6350344Z","@mt":"Overriding address(es) '{addresses}'. Binding to endpoints defined via IConfiguration and/or UseKestrel() instead.","@l":"Warning","addresses":"http://0.0.0.0:5000","SourceContext":"Microsoft.AspNetCore.Server.Kestrel"}
{"@t":"2024-06-25T09:50:48.7921124Z","@mt":"Failed to determine the https port for redirect.","@l":"Warning","EventId":{"Id":3,"Name":"FailedToDeterminePort"},"SourceContext":"Microsoft.AspNetCore.HttpsPolicy.HttpsRedirectionMiddleware","RequestId":"0HN4KVH5CN347:00000002","RequestPath":"/api/master-project/596e8169-0086-4ceb-95ec-839d221c4ecb","ConnectionId":"0HN4KVH5CN347"}
{"@t":"2024-06-25T09:50:50.4850638Z","@mt":"Entity '{principalEntityType}' has a global query filter defined and is the required end of a relationship with the entity '{declaringEntityType}'. This may lead to unexpected results when the required entity is filtered out. Either configure the navigation as optional, or define matching query filters for both entities in the navigation. See https://go.microsoft.com/fwlink/?linkid=2131316 for more information.","@l":"Warning","principalEntityType":"MasterProject","declaringEntityType":"CashAtBank","EventId":{"Id":10622,"Name":"Microsoft.EntityFrameworkCore.Model.Validation.PossibleIncorrectRequiredNavigationWithQueryFilterInteractionWarning"},"SourceContext":"Microsoft.EntityFrameworkCore.Model.Validation","ActionId":"ef203951-fa37-4903-93cf-0dbd35ee9cf8","ActionName":"SkeletonApi.Presentation.Controllers.MasterProjectController.Delete (SkeletonApi.Presentation)","RequestId":"0HN4KVH5CN347:00000003","RequestPath":"/api/master-project/596e8169-0086-4ceb-95ec-839d221c4ecb","ConnectionId":"0HN4KVH5CN347"}
{"@t":"2024-06-25T09:50:50.4866341Z","@mt":"Entity '{principalEntityType}' has a global query filter defined and is the required end of a relationship with the entity '{declaringEntityType}'. This may lead to unexpected results when the required entity is filtered out. Either configure the navigation as optional, or define matching query filters for both entities in the navigation. See https://go.microsoft.com/fwlink/?linkid=2131316 for more information.","@l":"Warning","principalEntityType":"MasterProject","declaringEntityType":"Project","EventId":{"Id":10622,"Name":"Microsoft.EntityFrameworkCore.Model.Validation.PossibleIncorrectRequiredNavigationWithQueryFilterInteractionWarning"},"SourceContext":"Microsoft.EntityFrameworkCore.Model.Validation","ActionId":"ef203951-fa37-4903-93cf-0dbd35ee9cf8","ActionName":"SkeletonApi.Presentation.Controllers.MasterProjectController.Delete (SkeletonApi.Presentation)","RequestId":"0HN4KVH5CN347:00000003","RequestPath":"/api/master-project/596e8169-0086-4ceb-95ec-839d221c4ecb","ConnectionId":"0HN4KVH5CN347"}
{"@t":"2024-06-25T09:50:50.4874354Z","@mt":"Entity '{principalEntityType}' has a global query filter defined and is the required end of a relationship with the entity '{declaringEntityType}'. This may lead to unexpected results when the required entity is filtered out. Either configure the navigation as optional, or define matching query filters for both entities in the navigation. See https://go.microsoft.com/fwlink/?linkid=2131316 for more information.","@l":"Warning","principalEntityType":"Item","declaringEntityType":"RequestItemWarehouse","EventId":{"Id":10622,"Name":"Microsoft.EntityFrameworkCore.Model.Validation.PossibleIncorrectRequiredNavigationWithQueryFilterInteractionWarning"},"SourceContext":"Microsoft.EntityFrameworkCore.Model.Validation","ActionId":"ef203951-fa37-4903-93cf-0dbd35ee9cf8","ActionName":"SkeletonApi.Presentation.Controllers.MasterProjectController.Delete (SkeletonApi.Presentation)","RequestId":"0HN4KVH5CN347:00000003","RequestPath":"/api/master-project/596e8169-0086-4ceb-95ec-839d221c4ecb","ConnectionId":"0HN4KVH5CN347"}
{"@t":"2024-06-25T09:50:50.4881055Z","@mt":"Entity '{principalEntityType}' has a global query filter defined and is the required end of a relationship with the entity '{declaringEntityType}'. This may lead to unexpected results when the required entity is filtered out. Either configure the navigation as optional, or define matching query filters for both entities in the navigation. See https://go.microsoft.com/fwlink/?linkid=2131316 for more information.","@l":"Warning","principalEntityType":"Item","declaringEntityType":"Warehouse","EventId":{"Id":10622,"Name":"Microsoft.EntityFrameworkCore.Model.Validation.PossibleIncorrectRequiredNavigationWithQueryFilterInteractionWarning"},"SourceContext":"Microsoft.EntityFrameworkCore.Model.Validation","ActionId":"ef203951-fa37-4903-93cf-0dbd35ee9cf8","ActionName":"SkeletonApi.Presentation.Controllers.MasterProjectController.Delete (SkeletonApi.Presentation)","RequestId":"0HN4KVH5CN347:00000003","RequestPath":"/api/master-project/596e8169-0086-4ceb-95ec-839d221c4ecb","ConnectionId":"0HN4KVH5CN347"}
{"@t":"2024-06-25T09:56:27.7581362Z","@mt":"Overriding address(es) '{addresses}'. Binding to endpoints defined via IConfiguration and/or UseKestrel() instead.","@l":"Warning","addresses":"http://0.0.0.0:5000","SourceContext":"Microsoft.AspNetCore.Server.Kestrel"}
{"@t":"2024-06-25T09:56:46.0206412Z","@mt":"Failed to determine the https port for redirect.","@l":"Warning","EventId":{"Id":3,"Name":"FailedToDeterminePort"},"SourceContext":"Microsoft.AspNetCore.HttpsPolicy.HttpsRedirectionMiddleware","RequestId":"0HN4KVKFRNUNV:00000002","RequestPath":"/api/master-project/596e8169-0086-4ceb-95ec-839d221c4ecb","ConnectionId":"0HN4KVKFRNUNV"}
{"@t":"2024-06-25T09:56:47.0851950Z","@mt":"Entity '{principalEntityType}' has a global query filter defined and is the required end of a relationship with the entity '{declaringEntityType}'. This may lead to unexpected results when the required entity is filtered out. Either configure the navigation as optional, or define matching query filters for both entities in the navigation. See https://go.microsoft.com/fwlink/?linkid=2131316 for more information.","@l":"Warning","principalEntityType":"MasterProject","declaringEntityType":"CashAtBank","EventId":{"Id":10622,"Name":"Microsoft.EntityFrameworkCore.Model.Validation.PossibleIncorrectRequiredNavigationWithQueryFilterInteractionWarning"},"SourceContext":"Microsoft.EntityFrameworkCore.Model.Validation","ActionId":"cd3375e4-c7cb-4ebc-aee9-305c2b6c51ca","ActionName":"SkeletonApi.Presentation.Controllers.MasterProjectController.Delete (SkeletonApi.Presentation)","RequestId":"0HN4KVKFRNUNV:00000003","RequestPath":"/api/master-project/596e8169-0086-4ceb-95ec-839d221c4ecb","ConnectionId":"0HN4KVKFRNUNV"}
{"@t":"2024-06-25T09:56:47.0860579Z","@mt":"Entity '{principalEntityType}' has a global query filter defined and is the required end of a relationship with the entity '{declaringEntityType}'. This may lead to unexpected results when the required entity is filtered out. Either configure the navigation as optional, or define matching query filters for both entities in the navigation. See https://go.microsoft.com/fwlink/?linkid=2131316 for more information.","@l":"Warning","principalEntityType":"MasterProject","declaringEntityType":"Project","EventId":{"Id":10622,"Name":"Microsoft.EntityFrameworkCore.Model.Validation.PossibleIncorrectRequiredNavigationWithQueryFilterInteractionWarning"},"SourceContext":"Microsoft.EntityFrameworkCore.Model.Validation","ActionId":"cd3375e4-c7cb-4ebc-aee9-305c2b6c51ca","ActionName":"SkeletonApi.Presentation.Controllers.MasterProjectController.Delete (SkeletonApi.Presentation)","RequestId":"0HN4KVKFRNUNV:00000003","RequestPath":"/api/master-project/596e8169-0086-4ceb-95ec-839d221c4ecb","ConnectionId":"0HN4KVKFRNUNV"}
{"@t":"2024-06-25T09:56:47.0865208Z","@mt":"Entity '{principalEntityType}' has a global query filter defined and is the required end of a relationship with the entity '{declaringEntityType}'. This may lead to unexpected results when the required entity is filtered out. Either configure the navigation as optional, or define matching query filters for both entities in the navigation. See https://go.microsoft.com/fwlink/?linkid=2131316 for more information.","@l":"Warning","principalEntityType":"Item","declaringEntityType":"RequestItemWarehouse","EventId":{"Id":10622,"Name":"Microsoft.EntityFrameworkCore.Model.Validation.PossibleIncorrectRequiredNavigationWithQueryFilterInteractionWarning"},"SourceContext":"Microsoft.EntityFrameworkCore.Model.Validation","ActionId":"cd3375e4-c7cb-4ebc-aee9-305c2b6c51ca","ActionName":"SkeletonApi.Presentation.Controllers.MasterProjectController.Delete (SkeletonApi.Presentation)","RequestId":"0HN4KVKFRNUNV:00000003","RequestPath":"/api/master-project/596e8169-0086-4ceb-95ec-839d221c4ecb","ConnectionId":"0HN4KVKFRNUNV"}
{"@t":"2024-06-25T09:56:47.0870518Z","@mt":"Entity '{principalEntityType}' has a global query filter defined and is the required end of a relationship with the entity '{declaringEntityType}'. This may lead to unexpected results when the required entity is filtered out. Either configure the navigation as optional, or define matching query filters for both entities in the navigation. See https://go.microsoft.com/fwlink/?linkid=2131316 for more information.","@l":"Warning","principalEntityType":"Item","declaringEntityType":"Warehouse","EventId":{"Id":10622,"Name":"Microsoft.EntityFrameworkCore.Model.Validation.PossibleIncorrectRequiredNavigationWithQueryFilterInteractionWarning"},"SourceContext":"Microsoft.EntityFrameworkCore.Model.Validation","ActionId":"cd3375e4-c7cb-4ebc-aee9-305c2b6c51ca","ActionName":"SkeletonApi.Presentation.Controllers.MasterProjectController.Delete (SkeletonApi.Presentation)","RequestId":"0HN4KVKFRNUNV:00000003","RequestPath":"/api/master-project/596e8169-0086-4ceb-95ec-839d221c4ecb","ConnectionId":"0HN4KVKFRNUNV"}
